[
{
    "pk": 1, 
    "model": "catalog.unit", 
    "fields": {
        "title": "%"
    }
},
{
    "pk": 2, 
    "model": "catalog.unit", 
    "fields": {
        "title": "1/\u043c\u0438\u043d"
    }
},
{
    "pk": 3, 
    "model": "catalog.unit", 
    "fields": {
        "title": "\u0410"
    }
},
{
    "pk": 4, 
    "model": "catalog.unit", 
    "fields": {
        "title": "\u041d"
    }
},
{
    "pk": 5, 
    "model": "catalog.unit", 
    "fields": {
        "title": "\u041d/\u043c\u043c"
    }
},
{
    "pk": 6, 
    "model": "catalog.unit", 
    "fields": {
        "title": "\u041d\u043c"
    }
},
{
    "pk": 7, 
    "model": "catalog.unit", 
    "fields": {
        "title": "\u0412"
    }
},
{
    "pk": 8, 
    "model": "catalog.unit", 
    "fields": {
        "title": "pole"
    }
},
{
    "pk": 9, 
    "model": "catalog.unit", 
    "fields": {
        "title": "-\u0440\u0430\u0437\u043e\u0432\u044b\u0439"
    }
},
{
    "pk": 10, 
    "model": "catalog.unit", 
    "fields": {
        "title": "\u043a\u0433"
    }
},
{
    "pk": 11, 
    "model": "catalog.unit", 
    "fields": {
        "title": "\u0410\u0447"
    }
},
{
    "pk": 12, 
    "model": "catalog.unit", 
    "fields": {
        "title": "\u0411\u0430\u0440"
    }
},
{
    "pk": 13, 
    "model": "catalog.unit", 
    "fields": {
        "title": "\u0412\u0442"
    }
},
{
    "pk": 14, 
    "model": "catalog.unit", 
    "fields": {
        "title": "\u0433"
    }
},
{
    "pk": 15, 
    "model": "catalog.unit", 
    "fields": {
        "title": "\u0433\u043e\u0434"
    }
},
{
    "pk": 16, 
    "model": "catalog.unit", 
    "fields": {
        "title": "\u0434\u0411 (\u0410)"
    }
},
{
    "pk": 17, 
    "model": "catalog.unit", 
    "fields": {
        "title": "\u0434\u044e\u0439\u043c"
    }
},
{
    "pk": 18, 
    "model": "catalog.unit", 
    "fields": {
        "title": "\u0413\u0446"
    }
},
{
    "pk": 19, 
    "model": "catalog.unit", 
    "fields": {
        "title": "\u0438\u043c\u043f\u0443\u043b\u044c\u0441/\u043c"
    }
},
{
    "pk": 20, 
    "model": "catalog.unit", 
    "fields": {
        "title": "\u043c\u043c2"
    }
},
{
    "pk": 21, 
    "model": "catalog.unit", 
    "fields": {
        "title": "\u043a\u0412\u0442"
    }
},
{
    "pk": 22, 
    "model": "catalog.unit", 
    "fields": {
        "title": "\u043a\u041d"
    }
},
{
    "pk": 23, 
    "model": "catalog.unit", 
    "fields": {
        "title": "\u043a\u043c"
    }
},
{
    "pk": 24, 
    "model": "catalog.unit", 
    "fields": {
        "title": "\u043a\u043c/\u0447"
    }
},
{
    "pk": 25, 
    "model": "catalog.unit", 
    "fields": {
        "title": "\u043a\u041e\u043c"
    }
},
{
    "pk": 26, 
    "model": "catalog.unit", 
    "fields": {
        "title": "\u0441\u043c3"
    }
},
{
    "pk": 27, 
    "model": "catalog.unit", 
    "fields": {
        "title": "\u043a\u043e\u043d\u0442\u0443\u0440"
    }
},
{
    "pk": 28, 
    "model": "catalog.unit", 
    "fields": {
        "title": "\u043b"
    }
},
{
    "pk": 29, 
    "model": "catalog.unit", 
    "fields": {
        "title": "\u043c"
    }
},
{
    "pk": 30, 
    "model": "catalog.unit", 
    "fields": {
        "title": "\u043c\u0438\u043b\u044f/\u0447"
    }
},
{
    "pk": 31, 
    "model": "catalog.unit", 
    "fields": {
        "title": "\u043c\u043a\u0424"
    }
},
{
    "pk": 32, 
    "model": "catalog.unit", 
    "fields": {
        "title": "\u043c\u043b"
    }
},
{
    "pk": 33, 
    "model": "catalog.unit", 
    "fields": {
        "title": "\u043c\u043c"
    }
},
{
    "pk": 34, 
    "model": "catalog.unit", 
    "fields": {
        "title": "\u0448\u0442 \u043d\u0430 \u043e\u0441\u044c"
    }
},
{
    "pk": 35, 
    "model": "catalog.unit", 
    "fields": {
        "title": "\u041e\u043c"
    }
},
{
    "pk": 36, 
    "model": "catalog.unit", 
    "fields": {
        "title": "\u0448\u0442"
    }
},
{
    "pk": 37, 
    "model": "catalog.unit", 
    "fields": {
        "title": "\u041f\u0441\u0438"
    }
},
{
    "pk": 38, 
    "model": "catalog.unit", 
    "fields": {
        "title": "\u0441\u043c"
    }
},
{
    "pk": 39, 
    "model": "catalog.unit", 
    "fields": {
        "title": "\u00b0\u0421"
    }
},
{
    "pk": 40, 
    "model": "catalog.unit", 
    "fields": {
        "title": "\u041f\u0430"
    }
},
{
    "pk": 41, 
    "model": "catalog.unit", 
    "fields": {
        "title": "\u0442"
    }
},
{
    "pk": 42, 
    "model": "catalog.unit", 
    "fields": {
        "title": "\u0447"
    }
},
{
    "pk": 43, 
    "model": "catalog.unit", 
    "fields": {
        "title": "\u00b0"
    }
},
{
    "pk": 44, 
    "model": "catalog.unit", 
    "fields": {
        "title": "\u0438\u043c\u043f\u0443\u043b\u044c\u0441/\u043e\u0431\u043e\u0440\u043e\u0442"
    }
},
{
    "pk": 45, 
    "model": "catalog.unit", 
    "fields": {
        "title": "\u043a\u0413\u0446"
    }
},
{
    "pk": 46, 
    "model": "catalog.unit", 
    "fields": {
        "title": "\u043a\u0434"
    }
},
{
    "pk": 47, 
    "model": "catalog.unit", 
    "fields": {
        "title": "\u043a\u041f\u0430"
    }
},
{
    "pk": 48, 
    "model": "catalog.unit", 
    "fields": {
        "title": "\u043b.\u0441."
    }
},
{
    "pk": 49, 
    "model": "catalog.unit", 
    "fields": {
        "title": "\u043b/\u0447"
    }
},
{
    "pk": 50, 
    "model": "catalog.unit", 
    "fields": {
        "title": "\u041c\u0413\u0446"
    }
},
{
    "pk": 51, 
    "model": "catalog.unit", 
    "fields": {
        "title": "\u043c\u0438\u043b\u044f"
    }
},
{
    "pk": 52, 
    "model": "catalog.unit", 
    "fields": {
        "title": "\u043c\u0438\u043d"
    }
},
{
    "pk": 53, 
    "model": "catalog.unit", 
    "fields": {
        "title": "\u0441"
    }
},
{
    "pk": 54, 
    "model": "catalog.unit", 
    "fields": {
        "title": "\u0444\u0443\u043d\u0442"
    }
},
{
    "pk": 55, 
    "model": "catalog.unit", 
    "fields": {
        "title": "\u00b0F"
    }
}
]
